{
  "routes": [
    {
      "method": "GET",
      "path": "/vpns",
      "handler": "vpn.find",
      "config": {
        "policies": []
      }
    },
    {
      "method": "GET",
      "path": "/vpns/count",
      "handler": "vpn.count",
      "config": {
        "policies": []
      }
    },
    {
      "method": "GET",
      "path": "/vpns/:id",
      "handler": "vpn.findOne",
      "config": {
        "policies": []
      }
    },
    {
      "method": "POST",
      "path": "/vpns",
      "handler": "vpn.create",
      "config": {
        "policies": []
      }
    },
    {
      "method": "PUT",
      "path": "/vpns/:id",
      "handler": "vpn.update",
      "config": {
        "policies": []
      }
    },
    {
      "method": "DELETE",
      "path": "/vpns/:id",
      "handler": "vpn.delete",
      "config": {
        "policies": []
      }
    }
  ]
}
